bulletType 
bulletSpeed 
bulletLife
bulletSize 
bulletTarget 
bulletRadius
bulletDensity 
bulletTilt 
bulletLoop
bulletTimeBetweenLoops
SpellType
Put timer on line before
Spell type:
Sphere - 0
Stream - 1
Arc - 2

1
( 0 300 10 0.1 1 100 1 0 10 0.3 2) 
4
( 0 300 10 0.1 1 100 1 1 10 0.3 2) 
6
( 0 300 10 0.3 0 150 30 1 10 0.5 0 )
4
( 0 300 10 0.1 1 10 -1 1 300 .01 1) 